{
  "project_info": {
    "project_number": "312243448243",
    "project_id": "sditp-team1",
    "storage_bucket": "sditp-team1.appspot.com"
  },
  "client": [
    {
      "client_info": {
        "mobilesdk_app_id": "1:312243448243:android:e181b1905035973dbbc3c6",
        "android_client_info": {
          "package_name": "SchemaZone.sditp.sditp_team1_app"
        }
      },
      "oauth_client": [
        {
          "client_id": "312243448243-faboj7r9l24rlqoos3n3danpa4j06n10.apps.googleusercontent.com",
          "client_type": 3
        }
      ],
      "api_key": [
        {
          "current_key": "AIzaSyAuUbieAoBGhpzpOlceVwP1JRT80jHocH0"
        }
      ],
      "services": {
        "appinvite_service": {
          "other_platform_oauth_client": [
            {
              "client_id": "312243448243-faboj7r9l24rlqoos3n3danpa4j06n10.apps.googleusercontent.com",
              "client_type": 3
            }
          ]
        }
      }
    }
  ],
  "configuration_version": "1"
}